0	0.0002
204	0.00135
408	0.00249
612	0.00363
816	0.00476
1020	0.0059
1224	0.007
1428	0.00817
1632	0.00928
1836	0.0104
2040	0.0115
2244	0.0126
2448	0.0137
2652	0.0148
2856	0.0158
3060	0.0169
3264	0.0178
3468	0.0186
3672	0.0192
3876	0.0197
4080	0.02
4095	0.021
